Trying out new Tidymodels package: vetiver | Brendan Graham
…
Introduction

The Jan 11, 2022 
Tidy Tuesday dataset provides an opportunity to try out the latest addition to the tidymodels ecosystem. The vetiver package is designed for easy model deployment & versioning.

First we’ll read in the dataset and explore it, create and compare some models, select a and deploy a final model as a versioned API using vetiver. The goal of this post isn’t to create the best model possible, though the modelling concepts and steps used here are also used when developing a “real” ML model. Instead the focus of this post is around deploying a model as an API using the vetiver package.

Explore the data

There are 2 datasets: colony and stressor; We will develop a model using stressors to predict colonies lost.

colony 

## # A tibble: 1,222 × 10
##     year months        state     colony_n colony_max colony_lost colony_lost_pct
##    <dbl> <chr>         <chr>        <dbl>      <dbl>       <dbl>           <dbl>
##  1  2015 January-March Alabama       7000       7000        1800              26
##  2  2015 January-March Arizona      35000      35000        4600              13
##  3  2015 January-March Arkansas     13000      14000        1500              11
##  4  2015 January-March Californ…  1440000    1690000      255000              15
##  5  2015 January-March Colorado      3500      12500        1500              12
##  6  2015 January-March Connecti…     3900       3900         870              22
##  7  2015 January-March Florida     305000     315000       42000              13
##  8  2015 January-March Georgia     104000     105000       14500              14
##  9  2015 January-March Hawaii       10500      10500         380               4
## 10  2015 January-March Idaho        81000      88000        3700               4
## # … with 1,212 more rows, and 3 more variables: colony_added <dbl>,
## #   colony_reno <dbl>, colony_reno_pct <dbl>

stressor 

## # A tibble: 7,332 × 5
##     year months        state   stressor              stress_pct
##    <dbl> <chr>         <chr>   <chr>                      <dbl>
##  1  2015 January-March Alabama Varroa mites                10  
##  2  2015 January-March Alabama Other pests/parasites        5.4
##  3  2015 January-March Alabama Disesases                   NA  
##  4  2015 January-March Alabama Pesticides                   2.2
##  5  2015 January-March Alabama Other                        9.1
##  6  2015 January-March Alabama Unknown                      9.4
##  7  2015 January-March Arizona Varroa mites                26.9
##  8  2015 January-March Arizona Other pests/parasites       20.5
##  9  2015 January-March Arizona Disesases                    0.1
## 10  2015 January-March Arizona Pesticides                  NA  
## # … with 7,322 more rows
…
splits

## <Analysis/Assess/Total>
## <856/287/1143>

We’ll need to tune some model hyperparameters, so we create some bootstrap resamples of the training data. We created 25 resamples, so each hyperparameter combination for each model will be fit and evaluated on each of the 25 splits.

folds <- 
  bootstraps(train, strata = colony_lost_pct, times = 25)

folds

## # Bootstrap sampling using stratification 
## # A tibble: 25 × 2
##    splits            id         
##    <list>            <chr>      
##  1 <split [856/307]> Bootstrap01
##  2 <split [856/310]> Bootstrap02
##  3 <split [856/330]> Bootstrap03
##  4 <split [856/322]> Bootstrap04
##  5 <split [856/310]> Bootstrap05
##  6 <split [856/314]> Bootstrap06
##  7 <split [856/310]> Bootstrap07
##  8 <split [856/316]> Bootstrap08
##  9 <split [856/312]> Bootstrap09
## 10 <split [856/309]> Bootstrap10
## # … with 15 more rows
…
Prep the recipe to make sure there are no issues with the pre-processing steps

prep(recipe) %>% 
  bake(new_data = NULL) 

## # A tibble: 856 × 7
##    `Varroa mites` `Other pests/parasites` Disesases Pesticides  Other Unknown
##             <dbl>                   <dbl>     <dbl>      <dbl>  <dbl>   <dbl>
##  1          0.440                   2.02     -0.325    -0.340  -0.642  -0.295
##  2          0.492                  -0.355     1.23     -0.236   0.402   0.101
##  3         -1.37                   -0.860    -0.297    -0.340   0.190  -0.465
##  4         -1.52                   -0.860    -0.297    -0.752  -0.703  -0.428
##  5         -1.14                   -0.829    -0.468    -0.675  -0.597   0.667
##  6         -1.51                   -0.738    -0.297    -0.340  -0.567  -0.805
##  7         -1.53                   -0.799    -0.511    -0.708  -0.763  -0.484
##  8         -1.06                   -0.837    -0.283    -0.675  -0.794  -0.692
##  9         -0.468                  -0.477    -0.140     0.0936 -0.536  -0.465
## 10          0.314                  -0.584    -0.525    -0.643  -0.188  -0.729
## # … with 846 more rows, and 1 more variable: colony_lost_pct <dbl>
…
