…
sbucks
```

    ## # A tibble: 1,147 × 15
    ##    product_n…¹ size  milk   whip serv_…² calor…³ total…⁴ satur…⁵ trans…⁶ chole…⁷
    ##    <chr>       <chr> <chr> <dbl>   <dbl>   <dbl>   <dbl>   <dbl> <chr>     <dbl>
    ##  1 brewed cof… short none      0     236       3     0.1       0 0             0
    ##  2 brewed cof… tall  none      0     354       4     0.1       0 0             0
    ##  3 brewed cof… gran… none      0     473       5     0.1       0 0             0
    ##  4 brewed cof… venti none      0     591       5     0.1       0 0             0
    ##  5 brewed cof… short none      0     236       3     0.1       0 0             0
    ##  6 brewed cof… tall  none      0     354       4     0.1       0 0             0
    ##  7 brewed cof… gran… none      0     473       5     0.1       0 0             0
    ##  8 brewed cof… venti none      0     591       5     0.1       0 0             0
    ##  9 brewed cof… short none      0     236       3     0.1       0 0             0
    ## 10 brewed cof… tall  none      0     354       4     0.1       0 0             0
    ## # … with 1,137 more rows, 5 more variables: sodium_mg <dbl>,
    ## #   total_carbs_g <dbl>, fiber_g <chr>, sugar_g <dbl>, caffeine_mg <dbl>, and
    ## #   abbreviated variable names ¹​product_name, ²​serv_size_m_l, ³​calories,
    ## #   ⁴​total_fat_g, ⁵​saturated_fat_g, ⁶​trans_fat_g, ⁷​cholesterol_mg
    ## # ℹ Use `print(n = ...)` to see more rows, and `colnames()` to see all variable names
…
