…
<script src="{{< blogdown/postref >}}index_files/header-attrs/header-attrs.js">
<script src="{{< blogdown/postref >}}index_files/core-js/shim.min.js">
<script src="{{< blogdown/postref >}}index_files/react/react.min.js">
<script src="{{< blogdown/postref >}}index_files/react/react-dom.min.js">
<script src="{{< blogdown/postref >}}index_files/reactwidget/react-tools.js">
<script src="{{< blogdown/postref >}}index_files/htmlwidgets/htmlwidgets.js">
<script src="{{< blogdown/postref >}}index_files/reactable-binding/reactable.js">

Explore the Data

sbucks

## # A tibble: 1,147 × 15
##    product_name             size  milk   whip serv_size_m_l calories total_fat_g
##    <chr>                    <chr> <chr> <dbl>         <dbl>    <dbl>       <dbl>
##  1 brewed coffee - dark ro… short none      0           236        3         0.1
##  2 brewed coffee - dark ro… tall  none      0           354        4         0.1
##  3 brewed coffee - dark ro… gran… none      0           473        5         0.1
##  4 brewed coffee - dark ro… venti none      0           591        5         0.1
##  5 brewed coffee - decaf p… short none      0           236        3         0.1
##  6 brewed coffee - decaf p… tall  none      0           354        4         0.1
##  7 brewed coffee - decaf p… gran… none      0           473        5         0.1
##  8 brewed coffee - decaf p… venti none      0           591        5         0.1
##  9 brewed coffee - medium … short none      0           236        3         0.1
## 10 brewed coffee - medium … tall  none      0           354        4         0.1
## # … with 1,137 more rows, and 8 more variables: saturated_fat_g <dbl>,
## #   trans_fat_g <chr>, cholesterol_mg <dbl>, sodium_mg <dbl>,
## #   total_carbs_g <dbl>, fiber_g <chr>, sugar_g <dbl>, caffeine_mg <dbl>
…
