…
breed_rank_all <-
  readr::read_csv('https://raw.githubusercontent.com/rfordatascience/tidytuesday/master/data/2022/2022-02-01/breed_rank.csv') %>%
  janitor::clean_names() %>%
  mutate(breed = str_squish(breed))
```

``` r
breed_traits 
```

    ## # A tibble: 195 × 17
    ##    breed     affectionate_wit… good_with_young_… good_with_other… shedding_level
    ##    <chr>                 <dbl>             <dbl>            <dbl>          <dbl>
    ##  1 Retrieve…                 5                 5                5              4
    ##  2 French B…                 5                 5                4              3
    ##  3 German S…                 5                 5                3              4
    ##  4 Retrieve…                 5                 5                5              4
    ##  5 Bulldogs                  4                 3                3              3
    ##  6 Poodles                   5                 5                3              1
    ##  7 Beagles                   3                 5                5              3
    ##  8 Rottweil…                 5                 3                3              3
    ##  9 Pointers…                 5                 5                4              3
    ## 10 Dachshun…                 5                 3                4              2
    ## # … with 185 more rows, and 12 more variables: coat_grooming_frequency <dbl>,
    ## #   drooling_level <dbl>, coat_type <chr>, coat_length <chr>,
    ## #   openness_to_strangers <dbl>, playfulness_level <dbl>,
    ## #   watchdog_protective_nature <dbl>, adaptability_level <dbl>,
    ## #   trainability_level <dbl>, energy_level <dbl>, barking_level <dbl>,
    ## #   mental_stimulation_needs <dbl>
…
``` r
breed_rank_all
```

    ## # A tibble: 195 × 11
    ##    breed       x2013_rank x2014_rank x2015_rank x2016_rank x2017_rank x2018_rank
    ##    <chr>            <dbl>      <dbl>      <dbl>      <dbl>      <dbl>      <dbl>
    ##  1 Retrievers…          1          1          1          1          1          1
    ##  2 French Bul…         11          9          6          6          4          4
    ##  3 German She…          2          2          2          2          2          2
    ##  4 Retrievers…          3          3          3          3          3          3
    ##  5 Bulldogs             5          4          4          4          5          5
    ##  6 Poodles              8          7          8          7          7          7
    ##  7 Beagles              4          5          5          5          6          6
    ##  8 Rottweilers          9         10          9          8          8          8
    ##  9 Pointers (…         13         12         11         11         10          9
    ## 10 Dachshunds          10         11         13         13         13         12
    ## # … with 185 more rows, and 4 more variables: x2019_rank <dbl>,
    ## #   x2020_rank <dbl>, links <chr>, image <chr>
…
tidy_descripion <-
  trait_description %>%
  filter(trait %in% trait_list) %>%
  unnest_tokens(word, description) %>%
  anti_join(get_stopwords()) %>% 
  filter(!word %in% c("breed", "breeds", "breed's", "dogs"))
  
tidy_descripion %>%
  count(word, sort = TRUE)
```

    ## # A tibble: 76 × 2
    ##    word             n
    ##    <chr>        <int>
    ##  1 want             4
    ##  2 can              3
    ##  3 bark             2
    ##  4 dog              2
    ##  5 everyone         2
    ##  6 like             2
    ##  7 others           2
    ##  8 owner            2
    ##  9 projects         2
    ## 10 affectionate     1
    ## # … with 66 more rows
…
    ## A LDA_VEM topic model with 4 topics.

we can examine per-topic-per-word probabilities, beta, where the model computes the probability of a given term being generated from a given topic. For example, the term “affectionate” has an almost zero probability of being generated from topics 1, 2, or 3, but it makes up about 5% of topic 4.

``` r
# per-topic-per-word probabilities.
trait_topics <- 
  tidy(traits_lda, matrix = "beta")

trait_topics
```

    ## # A tibble: 304 × 3
    ##    topic term              beta
    ##    <int> <chr>            <dbl>
    ##  1     1 affectionate 1.67e-146
    ##  2     2 affectionate 7.24e-146
    ##  3     3 affectionate 5.37e-146
    ##  4     4 affectionate 5.88e-  2
    ##  5     1 aloof        1.67e-146
    ##  6     2 aloof        7.24e-146
    ##  7     3 aloof        5.37e-146
    ##  8     4 aloof        5.88e-  2
    ##  9     1 best         1.67e-146
    ## 10     2 best         7.24e-146
    ## # … with 294 more rows
…
