Comparing Traditional and Text-Based Models to Predict Chocolate Rating | Brendan Graham
…
        Comparing Traditional and Text-Based Models to Predict Chocolate Rating

        By Brendan Graham in tidy tuesday  tidymodels  data science 

        January 18, 2022

The goal for this weeks analysis to compare 2 types of models for predicting chocolate ratings. I have read bout text based models but haven’t every attempted one, so in this analysis I will compare some text-based models with more traditional ML models.

The data is composed of 2,530 observations of 10 variables. There is some missing ingredients data, but all other columns are complete.

chocolate

## # A tibble: 2,530 × 10
##      ref company_manufacturer company_location review_date country_of_bean_orig…
##    <dbl> <chr>                <chr>                  <dbl> <chr>                
##  1  2454 5150                 U.S.A.                  2019 Tanzania             
##  2  2458 5150                 U.S.A.                  2019 Dominican Republic   
##  3  2454 5150                 U.S.A.                  2019 Madagascar           
##  4  2542 5150                 U.S.A.                  2021 Fiji                 
##  5  2546 5150                 U.S.A.                  2021 Venezuela            
##  6  2546 5150                 U.S.A.                  2021 Uganda               
##  7  2542 5150                 U.S.A.                  2021 India                
##  8   797 A. Morin             France                  2012 Bolivia              
##  9   797 A. Morin             France                  2012 Peru                 
## 10  1011 A. Morin             France                  2013 Panama               
## # … with 2,520 more rows, and 5 more variables:
## #   specific_bean_origin_or_bar_name <chr>, cocoa_percent <chr>,
## #   ingredients <chr>, most_memorable_characteristics <chr>, rating <dbl>
…
