Comparing Variability in Ultra Trail Running Results Across Countries | Brendan Graham Online
…
        By Brendan Graham in tidy tuesday 

        January 2, 2022

This post looks at a past 
TidyTuesday data set about ultra trail running. After looking at the data I attempt to quantify and compare the variation in rankings between countries.

Explore the Data

Race data is at the race level; events are made up of races. There can be multiple event observations per year.

race

## # A tibble: 1,207 × 14
##    race_year_id event   race   city  country date       start_time participation
##           <dbl> <chr>   <chr>  <chr> <chr>   <date>     <time>     <chr>        
##  1        68140 Peak D… Mills… Cast… United… 2021-09-03 19:00      solo         
##  2        72496 UTMB®   UTMB®  Cham… France  2021-08-27 17:00      Solo         
##  3        69855 Grand … Ultra… viel… France  2021-08-20 05:00      solo         
##  4        67856 Persen… PERSE… Asen… Bulgar… 2021-08-20 18:00      solo         
##  5        70469 Runfir… 100 M… uluk… Turkey  2021-08-20 18:00      solo         
##  6        66887 Swiss … 160KM  Müns… Switze… 2021-08-15 17:00      solo         
##  7        67851 Salomo… Salom… Foll… Norway  2021-08-14 07:00      solo         
##  8        68241 Ultra … 160KM  Spa   Belgium 2021-08-14 07:00      solo         
##  9        70241 Québec… QMT-1… Beau… Canada  2021-08-13 22:00      solo         
## 10        69945 Bunket… BBUT … LIND… Sweden  2021-08-07 10:00      solo         
## # … with 1,197 more rows, and 6 more variables: distance <dbl>,
## #   elevation_gain <dbl>, elevation_loss <dbl>, aid_stations <dbl>,
## #   participants <dbl>, year <dbl>
…
Some races can have thousands of participants:

race %>% 
  select(event, race, participants) %>%
  distinct() %>%
  arrange(desc(participants)) %>%
  head(10) %>%
  add_table()

Ranking data is at the racer level; racers can appear more than once:

ultra_rankings 

## # A tibble: 137,803 × 8
##    race_year_id  rank runner     time     age gender nationality time_in_seconds
##           <dbl> <dbl> <chr>      <chr>  <dbl> <chr>  <chr>                 <dbl>
##  1        68140     1 VERHEUL J… 26H 3…    30 M      GBR                   95725
##  2        68140     2 MOULDING … 27H 0…    43 M      GBR                   97229
##  3        68140     3 RICHARDSO… 28H 4…    38 M      GBR                  103747
##  4        68140     4 DYSON Fio… 30H 5…    55 W      GBR                  111217
##  5        68140     5 FRONTERAS… 32H 4…    48 W      GBR                  117981
##  6        68140     6 THOMAS Le… 32H 4…    31 M      GBR                  118000
##  7        68140     7 SHORT Deb… 33H 3…    55 W      GBR                  120601
##  8        68140     8 CROSSLEY … 33H 3…    40 W      GBR                  120803
##  9        68140     9 BUTCHER K… 34H 5…    47 M      GBR                  125656
## 10        68140    10 Hendry Bi… 34H 5…    29 M      GBR                  125979
## # … with 137,793 more rows
…
