Combining 'Traditional' and Text-Based Models to Board Game Ratings | Brendan Graham Online
…
        Combining 'Traditional' and Text-Based Models to Board Game Ratings

        By Brendan Graham in tidy tuesday  tidymodels  data science 

        January 26, 2022

        Last week I tried out a text based model for the first time. This week I want to continue working with a text based model, but supplement the text data with other non-text predictors. The goal will be to use the board game category (text data) and other non-text data to predict the average board game rating.

Explore the Data

there are 2 tables, one that has the ratings variable we’ll use as the outcome, and the other has some columns to be used as predictors.

ratings

## # A tibble: 21,831 × 10
##      num     id name     year  rank average bayes_average users_rated url       
##    <dbl>  <dbl> <chr>   <dbl> <dbl>   <dbl>         <dbl>       <dbl> <chr>     
##  1   105  30549 Pandem…  2008   106    7.59          7.49      108975 /boardgam…
##  2   189    822 Carcas…  2000   190    7.42          7.31      108738 /boardgam…
##  3   428     13 Catan    1995   429    7.14          6.97      108024 /boardgam…
##  4    72  68448 7 Wond…  2010    73    7.74          7.63       89982 /boardgam…
##  5   103  36218 Domini…  2008   104    7.61          7.50       81561 /boardgam…
##  6   191   9209 Ticket…  2004   192    7.41          7.30       76171 /boardgam…
##  7   100 178900 Codena…  2015   101    7.6           7.51       74419 /boardgam…
##  8     3 167791 Terraf…  2016     4    8.42          8.27       74216 /boardgam…
##  9    15 173346 7 Wond…  2015    16    8.11          7.98       69472 /boardgam…
## 10    35  31260 Agrico…  2007    36    7.93          7.81       66093 /boardgam…
## # … with 21,821 more rows, and 1 more variable: thumbnail <chr>

details

## # A tibble: 21,631 × 23
##      num     id primary   description        yearpublished minplayers maxplayers
##    <dbl>  <dbl> <chr>     <chr>                      <dbl>      <dbl>      <dbl>
##  1     0  30549 Pandemic  In Pandemic, seve…          2008          2          4
##  2     1    822 Carcasso… Carcassonne is a …          2000          2          5
##  3     2     13 Catan     In CATAN (formerl…          1995          3          4
##  4     3  68448 7 Wonders You are the leade…          2010          2          7
##  5     4  36218 Dominion  &quot;You are a m…          2008          2          4
##  6     5   9209 Ticket t… With elegantly si…          2004          2          5
##  7     6 178900 Codenames Codenames is an e…          2015          2          8
##  8     7 167791 Terrafor… In the 2400s, man…          2016          1          5
##  9     8 173346 7 Wonder… In many ways 7 Wo…          2015          2          2
## 10     9  31260 Agricola  Description from …          2007          1          5
## # … with 21,621 more rows, and 16 more variables: playingtime <dbl>,
## #   minplaytime <dbl>, maxplaytime <dbl>, minage <dbl>,
## #   boardgamecategory <chr>, boardgamemechanic <chr>, boardgamefamily <chr>,
## #   boardgameexpansion <chr>, boardgameimplementation <chr>,
## #   boardgamedesigner <chr>, boardgameartist <chr>, boardgamepublisher <chr>,
## #   owned <dbl>, trading <dbl>, wanting <dbl>, wishing <dbl>
…
tidy_category <-
  combined %>%
  unnest_tokens(word, category)

tidy_category %>%
  count(word, sort = TRUE)

## # A tibble: 113 × 2
##    word         n
##    <chr>    <int>
##  1 game     10882
##  2 card      6402
##  3 wargame   3820
##  4 fantasy   2681
##  5 war       1996
##  6 party     1968
##  7 dice      1847
##  8 fiction   1666
##  9 science   1666
## 10 fighting  1658
## # … with 103 more rows
…
The IDF is defined as follows: idf = log(1 + (# documents in the corpus) / (# documents where the term appears))

Normally we’d used step_tokenfilter() as well, but there are not that many categories so we can use all 113. The important step here is to prep() the recipe and then bake() the results. This sequence of functions applies and executes the recipe, and returns a dataframe ready to be joined with the other predictors.

text_prep <- 
  recipe(average ~ num + id + name + category, data = combined) %>%
  update_role(num, id, name, new_role = "ID variables") %>%
  step_tokenize(category) %>%
  step_tfidf(category) %>%
  prep() %>%
  bake(new_data = NULL)

text_prep

## # A tibble: 21,348 × 117
##      num     id name  average tfidf_category_… tfidf_category_… tfidf_category_…
##    <dbl>  <dbl> <fct>   <dbl>            <dbl>            <dbl>            <dbl>
##  1   105  30549 Pand…    7.59                0                0                0
##  2   189    822 Carc…    7.42                0                0                0
##  3   428     13 Catan    7.14                0                0                0
##  4    72  68448 7 Wo…    7.74                0                0                0
##  5   103  36218 Domi…    7.61                0                0                0
##  6   191   9209 Tick…    7.41                0                0                0
##  7   100 178900 Code…    7.6                 0                0                0
##  8     3 167791 Terr…    8.42                0                0                0
##  9    15 173346 7 Wo…    8.11                0                0                0
## 10    35  31260 Agri…    7.93                0                0                0
## # … with 21,338 more rows, and 110 more variables:
## #   tfidf_category_adventure <dbl>, tfidf_category_age <dbl>,
## #   tfidf_category_agents <dbl>, tfidf_category_american <dbl>,
## #   tfidf_category_ancient <dbl>, tfidf_category_and <dbl>,
## #   tfidf_category_animals <dbl>, tfidf_category_arabian <dbl>,
## #   tfidf_category_aviation <dbl>, tfidf_category_base <dbl>,
## #   tfidf_category_based <dbl>, tfidf_category_bluffing <dbl>, …

model_data <- 
  combined %>%
  select(-category) %>%
  left_join(., text_prep %>% select(-c(num, name, average)), "id") 

model_data

## # A tibble: 21,348 × 121
##      num     id name            average minplayers maxplayers playingtime minage
##    <dbl>  <dbl> <chr>             <dbl>      <dbl>      <dbl>       <dbl>  <dbl>
##  1   105  30549 Pandemic           7.59          2          4          45      8
##  2   189    822 Carcassonne        7.42          2          5          45      7
##  3   428     13 Catan              7.14          3          4         120     10
##  4    72  68448 7 Wonders          7.74          2          7          30     10
##  5   103  36218 Dominion           7.61          2          4          30     13
##  6   191   9209 Ticket to Ride     7.41          2          5          60      8
##  7   100 178900 Codenames          7.6           2          8          15     14
##  8     3 167791 Terraforming M…    8.42          1          5         120     12
##  9    15 173346 7 Wonders Duel     8.11          2          2          30     10
## 10    35  31260 Agricola           7.93          1          5         150     12
## # … with 21,338 more rows, and 113 more variables:
## #   tfidf_category_abstract <dbl>, tfidf_category_action <dbl>,
## #   tfidf_category_adult <dbl>, tfidf_category_adventure <dbl>,
## #   tfidf_category_age <dbl>, tfidf_category_agents <dbl>,
## #   tfidf_category_american <dbl>, tfidf_category_ancient <dbl>,
## #   tfidf_category_and <dbl>, tfidf_category_animals <dbl>,
## #   tfidf_category_arabian <dbl>, tfidf_category_aviation <dbl>, …
…
